<svg width="15" height="13" viewBox="0 0 15 13" fill="none" xmlns="http://www.w3.org/2000/svg">
<path d="M10.2264 1.39103L10.2263 1.39095C9.24979 0.764187 8.11964 0.433203 6.95818 0.433203C3.61784 0.433203 0.9 3.15105 0.9 6.49138C0.9 9.83172 3.61785 12.5495 6.95818 12.5495C10.2985 12.5495 13.0163 9.83172 13.0163 6.49138C13.0163 6.29217 13.0069 6.09509 12.9882 5.90064L12.9882 5.90051C12.9611 5.62211 12.7145 5.41991 12.4359 5.44554L12.4354 5.44558C12.1574 5.47252 11.9536 5.71955 11.9804 5.99819C11.9958 6.16022 12.0038 6.32498 12.0038 6.49138C12.0038 9.27327 9.74007 11.537 6.95818 11.537C4.17619 11.537 1.91247 9.27327 1.91247 6.49138C1.91247 3.7094 4.17619 1.44568 6.95818 1.44568C7.92541 1.44568 8.86639 1.72127 9.67896 2.24337L9.67901 2.24341C9.91455 2.39455 10.2271 2.32633 10.3787 2.09102L10.3788 2.09089C10.5301 1.85524 10.4612 1.54218 10.2264 1.39103Z" fill="white" stroke="white" stroke-width="0.2"/>
<path d="M7.76007 6.72335L5.68038 4.64366C5.48265 4.44592 5.16206 4.44592 4.96432 4.64366C4.76657 4.84141 4.7666 5.16198 4.9643 5.3598L4.96432 5.35982L7.40152 7.79703C7.40156 7.79707 7.4016 7.79711 7.40164 7.79715C7.50033 7.89639 7.63024 7.94565 7.75948 7.94565C7.88891 7.94565 8.01847 7.89634 8.11754 7.79801L8.11781 7.79774L14.076 1.83956C14.2737 1.64183 14.2737 1.32124 14.076 1.1235C13.8782 0.925748 13.5577 0.92578 13.3598 1.12348L13.3598 1.1235L7.76007 6.72335Z" fill="white" stroke="white" stroke-width="0.2"/>
</svg>
