<svg width="14" height="14" viewBox="0 0 14 14" fill="none" xmlns="http://www.w3.org/2000/svg">
<g clip-path="url(#clip0)">
<path d="M12.6841 3.12926L12.375 2.20267C12.2573 1.84976 11.9282 1.61264 11.5563 1.61264H8.9583V0.7668C8.9583 0.34404 8.61458 0 8.19193 0H5.81281C5.39026 0 5.04643 0.34404 5.04643 0.7668V1.61264H2.44856C2.07654 1.61264 1.74745 1.84976 1.62975 2.20267L1.32063 3.12926C1.25024 3.34021 1.28592 3.57381 1.41591 3.75421C1.5459 3.93462 1.75621 4.04239 1.97859 4.04239H2.3017L3.01285 12.8363C3.06572 13.4888 3.61943 14 4.27365 14H9.87538C10.5295 14 11.0833 13.4888 11.1361 12.8362L11.8472 4.04239H12.0261C12.2485 4.04239 12.4588 3.93462 12.5888 3.75432C12.7188 3.57391 12.7545 3.34021 12.6841 3.12926ZM5.86674 0.820312H8.13799V1.61264H5.86674V0.820312ZM10.3184 12.7701C10.2999 12.9998 10.1052 13.1797 9.87538 13.1797H4.27365C4.04379 13.1797 3.84918 12.9998 3.8306 12.7701L3.12468 4.04239H11.0242L10.3184 12.7701ZM2.15451 3.22208L2.40797 2.46222C2.41374 2.4447 2.43008 2.43295 2.44856 2.43295H11.5563C11.5748 2.43295 11.591 2.4447 11.5969 2.46222L11.8503 3.22208H2.15451Z" fill="#00642F"/>
<path d="M9.00992 12.7409C9.01718 12.7413 9.02434 12.7414 9.0316 12.7414C9.24833 12.7414 9.42948 12.5716 9.4408 12.3526L9.82597 4.95892C9.83772 4.73269 9.66383 4.53968 9.43771 4.52794C9.21094 4.51587 9.01857 4.68997 9.00672 4.9162L8.62166 12.3099C8.60991 12.5361 8.78369 12.7291 9.00992 12.7409Z" fill="#00642F"/>
<path d="M4.58167 12.3535C4.59363 12.5722 4.77457 12.7413 4.99086 12.7413C4.99834 12.7413 5.00603 12.7411 5.01361 12.7407C5.23973 12.7284 5.41308 12.5351 5.4008 12.3089L4.99737 4.91516C4.98509 4.68893 4.79176 4.51558 4.56554 4.52797C4.33942 4.54025 4.16607 4.73358 4.17835 4.95981L4.58167 12.3535Z" fill="#00642F"/>
<path d="M7.00684 12.7414C7.23338 12.7414 7.41699 12.5578 7.41699 12.3312V4.9375C7.41699 4.71095 7.23338 4.52734 7.00684 4.52734C6.78029 4.52734 6.59668 4.71095 6.59668 4.9375V12.3312C6.59668 12.5578 6.78029 12.7414 7.00684 12.7414Z" fill="#00642F"/>
</g>
<defs>
<clipPath id="clip0">
<rect width="14" height="14" fill="white"/>
</clipPath>
</defs>
</svg>
